640 480
623.8024291992188 312.83416748046875
623.8024291992188 231.29409790039062

480 360
459.22967529296875 225.76394653320312
459.22967529296875 179.5

1.0 0.0 0.0 0.07018793547
0.0 1.0 0.0 -2.57827099413e-05
0.0 0.0 1.0 -0.000647902607918

0.0 0.0

-0.99845951 -0.0484984 0.02695399 0.04596589
0.05177217 -0.98905015 0.13820077 0.07020951
0.01995634 0.13938334 0.99003739 0.04030777
